Location/Bldg/Business,	0
Back- ground,		1
Ambient Sound,		2
CTL/ Factoid,		3
Mini-Game,		4
Coupon/ Offer,		5
Virt Econ/ Merch,	6
Hidden Object,		7
Data,			8
Activation Point,	9
Overlay Media,		10
Ambient Sound,		11
Mini-Game,		12
Coupon/ Offer,		13
Virt Econ/ Merch,	14
Data,			15
Notes,			16
,			17
,			18
,			19
Latitude,		20
Longitude		21